<mxfile host="app.diagrams.net" modified="2023-09-01T08:04:35.070Z" agent="Mozilla/5.0 (Windows NT 10.0; Win64; x64) AppleWebKit/537.36 (KHTML, like Gecko) Chrome/116.0.0.0 Safari/537.36" etag="M1DAGBVUJmi-lyGzZNVM" version="21.7.1" type="gitlab">
  <diagram name="Page-1" id="03018318-947c-dd8e-b7a3-06fadd420f32">
    <mxGraphModel dx="1344" dy="-68" grid="1" gridSize="10" guides="1" tooltips="1" connect="1" arrows="1" fold="1" page="1" pageScale="1" pageWidth="1100" pageHeight="850" background="none" math="0" shadow="0">
      <root>
        <mxCell id="0" />
        <mxCell id="1" parent="0" />
        <mxCell id="pKKp_fUznjFYKyU9j5ZJ-2" value="" style="whiteSpace=wrap;html=1;rounded=0;shadow=0;labelBackgroundColor=none;strokeColor=#000000;strokeWidth=1;fillColor=none;fontFamily=Verdana;fontSize=12;fontColor=#000000;align=center;comic=1;" vertex="1" parent="1">
          <mxGeometry x="20" y="930" width="1060" height="480" as="geometry" />
        </mxCell>
        <mxCell id="pKKp_fUznjFYKyU9j5ZJ-3" value="All news" style="whiteSpace=wrap;html=1;rounded=0;shadow=0;labelBackgroundColor=none;strokeWidth=1;fontFamily=Verdana;fontSize=28;align=center;comic=1;" vertex="1" parent="1">
          <mxGeometry x="40" y="970" width="190" height="50" as="geometry" />
        </mxCell>
        <mxCell id="pKKp_fUznjFYKyU9j5ZJ-9" value="" style="whiteSpace=wrap;html=1;rounded=0;shadow=0;labelBackgroundColor=none;strokeWidth=1;fillColor=none;fontFamily=Verdana;fontSize=12;align=center;comic=1;" vertex="1" parent="1">
          <mxGeometry x="70" y="1080" width="200" height="240" as="geometry" />
        </mxCell>
        <mxCell id="pKKp_fUznjFYKyU9j5ZJ-10" value="" style="line;strokeWidth=1;html=1;rounded=0;shadow=0;labelBackgroundColor=none;fillColor=none;fontFamily=Verdana;fontSize=14;fontColor=#000000;align=center;comic=1;" vertex="1" parent="1">
          <mxGeometry x="20" y="1050" width="1060" height="10" as="geometry" />
        </mxCell>
        <mxCell id="pKKp_fUznjFYKyU9j5ZJ-11" value="" style="whiteSpace=wrap;html=1;rounded=0;shadow=0;labelBackgroundColor=none;strokeWidth=1;fillColor=none;fontFamily=Verdana;fontSize=12;align=center;comic=1;" vertex="1" parent="1">
          <mxGeometry x="20" y="1360" width="1060" height="50" as="geometry" />
        </mxCell>
        <mxCell id="pKKp_fUznjFYKyU9j5ZJ-18" value="" style="whiteSpace=wrap;html=1;rounded=0;shadow=0;labelBackgroundColor=none;strokeWidth=1;fillColor=none;fontFamily=Verdana;fontSize=12;align=center;comic=1;" vertex="1" parent="1">
          <mxGeometry x="790" y="1080" width="230" height="240" as="geometry" />
        </mxCell>
        <mxCell id="pKKp_fUznjFYKyU9j5ZJ-19" value="" style="whiteSpace=wrap;html=1;rounded=0;shadow=0;labelBackgroundColor=none;strokeWidth=1;fillColor=none;fontFamily=Verdana;fontSize=12;align=center;comic=1;" vertex="1" parent="1">
          <mxGeometry x="425" y="1080" width="230" height="240" as="geometry" />
        </mxCell>
        <mxCell id="pKKp_fUznjFYKyU9j5ZJ-42" value="LOGO" style="whiteSpace=wrap;html=1;rounded=0;shadow=0;labelBackgroundColor=none;strokeWidth=1;fontFamily=Verdana;fontSize=28;align=center;comic=1;" vertex="1" parent="1">
          <mxGeometry x="433" y="970" width="190" height="50" as="geometry" />
        </mxCell>
        <mxCell id="pKKp_fUznjFYKyU9j5ZJ-43" value="SIGN UP" style="whiteSpace=wrap;html=1;rounded=0;shadow=0;labelBackgroundColor=none;strokeWidth=1;fontFamily=Verdana;fontSize=28;align=center;comic=1;" vertex="1" parent="1">
          <mxGeometry x="930" y="980" width="125" height="40" as="geometry" />
        </mxCell>
        <mxCell id="pKKp_fUznjFYKyU9j5ZJ-44" value="LOGIN" style="whiteSpace=wrap;html=1;rounded=0;shadow=0;labelBackgroundColor=none;strokeWidth=1;fontFamily=Verdana;fontSize=28;align=center;comic=1;" vertex="1" parent="1">
          <mxGeometry x="790" y="980" width="110" height="40" as="geometry" />
        </mxCell>
        <mxCell id="pKKp_fUznjFYKyU9j5ZJ-45" value="&lt;font style=&quot;font-size: 18px;&quot;&gt;NEWS&lt;/font&gt;" style="whiteSpace=wrap;html=1;rounded=0;shadow=0;labelBackgroundColor=none;strokeWidth=1;fontFamily=Verdana;fontSize=28;align=center;comic=1;" vertex="1" parent="1">
          <mxGeometry x="150" y="1120" width="110" height="30" as="geometry" />
        </mxCell>
        <mxCell id="pKKp_fUznjFYKyU9j5ZJ-46" value="&lt;font style=&quot;font-size: 18px;&quot;&gt;DETAILS&lt;/font&gt;" style="whiteSpace=wrap;html=1;rounded=0;shadow=0;labelBackgroundColor=none;strokeWidth=1;fontFamily=Verdana;fontSize=28;align=center;comic=1;" vertex="1" parent="1">
          <mxGeometry x="75" y="1260" width="110" height="30" as="geometry" />
        </mxCell>
        <mxCell id="pKKp_fUznjFYKyU9j5ZJ-47" value="&lt;font style=&quot;font-size: 18px;&quot;&gt;NEWS&lt;/font&gt;" style="whiteSpace=wrap;html=1;rounded=0;shadow=0;labelBackgroundColor=none;strokeWidth=1;fontFamily=Verdana;fontSize=28;align=center;comic=1;" vertex="1" parent="1">
          <mxGeometry x="530" y="1120" width="110" height="30" as="geometry" />
        </mxCell>
        <mxCell id="pKKp_fUznjFYKyU9j5ZJ-48" value="&lt;font style=&quot;font-size: 18px;&quot;&gt;DETAILS&lt;/font&gt;" style="whiteSpace=wrap;html=1;rounded=0;shadow=0;labelBackgroundColor=none;strokeWidth=1;fontFamily=Verdana;fontSize=28;align=center;comic=1;" vertex="1" parent="1">
          <mxGeometry x="433" y="1260" width="110" height="30" as="geometry" />
        </mxCell>
        <mxCell id="pKKp_fUznjFYKyU9j5ZJ-49" value="&lt;font style=&quot;font-size: 18px;&quot;&gt;NEWS&lt;/font&gt;" style="whiteSpace=wrap;html=1;rounded=0;shadow=0;labelBackgroundColor=none;strokeWidth=1;fontFamily=Verdana;fontSize=28;align=center;comic=1;" vertex="1" parent="1">
          <mxGeometry x="900" y="1120" width="110" height="30" as="geometry" />
        </mxCell>
        <mxCell id="pKKp_fUznjFYKyU9j5ZJ-50" value="&lt;font style=&quot;font-size: 18px;&quot;&gt;DETAILS&lt;/font&gt;" style="whiteSpace=wrap;html=1;rounded=0;shadow=0;labelBackgroundColor=none;strokeWidth=1;fontFamily=Verdana;fontSize=28;align=center;comic=1;" vertex="1" parent="1">
          <mxGeometry x="800" y="1260" width="110" height="30" as="geometry" />
        </mxCell>
        <mxCell id="pKKp_fUznjFYKyU9j5ZJ-51" value="&lt;font style=&quot;font-size: 18px;&quot;&gt;LOGOUT&lt;/font&gt;" style="whiteSpace=wrap;html=1;rounded=0;shadow=0;labelBackgroundColor=none;strokeWidth=1;fontFamily=Verdana;fontSize=28;align=center;comic=1;" vertex="1" parent="1">
          <mxGeometry x="30" y="1370" width="80" height="30" as="geometry" />
        </mxCell>
        <mxCell id="pKKp_fUznjFYKyU9j5ZJ-52" value="" style="whiteSpace=wrap;html=1;rounded=0;shadow=0;labelBackgroundColor=none;strokeColor=#000000;strokeWidth=1;fillColor=none;fontFamily=Verdana;fontSize=12;fontColor=#000000;align=center;comic=1;" vertex="1" parent="1">
          <mxGeometry x="20" y="1460" width="1060" height="480" as="geometry" />
        </mxCell>
        <mxCell id="pKKp_fUznjFYKyU9j5ZJ-53" value="All news" style="whiteSpace=wrap;html=1;rounded=0;shadow=0;labelBackgroundColor=none;strokeWidth=1;fontFamily=Verdana;fontSize=28;align=center;comic=1;" vertex="1" parent="1">
          <mxGeometry x="40" y="1500" width="190" height="50" as="geometry" />
        </mxCell>
        <mxCell id="pKKp_fUznjFYKyU9j5ZJ-55" value="" style="line;strokeWidth=1;html=1;rounded=0;shadow=0;labelBackgroundColor=none;fillColor=none;fontFamily=Verdana;fontSize=14;fontColor=#000000;align=center;comic=1;" vertex="1" parent="1">
          <mxGeometry x="20" y="1580" width="1060" height="10" as="geometry" />
        </mxCell>
        <mxCell id="pKKp_fUznjFYKyU9j5ZJ-56" value="" style="whiteSpace=wrap;html=1;rounded=0;shadow=0;labelBackgroundColor=none;strokeWidth=1;fillColor=none;fontFamily=Verdana;fontSize=12;align=center;comic=1;" vertex="1" parent="1">
          <mxGeometry x="20" y="1890" width="1060" height="50" as="geometry" />
        </mxCell>
        <mxCell id="pKKp_fUznjFYKyU9j5ZJ-58" value="" style="whiteSpace=wrap;html=1;rounded=0;shadow=0;labelBackgroundColor=none;strokeWidth=1;fillColor=none;fontFamily=Verdana;fontSize=12;align=center;comic=1;" vertex="1" parent="1">
          <mxGeometry x="425" y="1610" width="230" height="250" as="geometry" />
        </mxCell>
        <mxCell id="pKKp_fUznjFYKyU9j5ZJ-59" value="LOGO" style="whiteSpace=wrap;html=1;rounded=0;shadow=0;labelBackgroundColor=none;strokeWidth=1;fontFamily=Verdana;fontSize=28;align=center;comic=1;" vertex="1" parent="1">
          <mxGeometry x="865" y="1500" width="190" height="50" as="geometry" />
        </mxCell>
        <mxCell id="pKKp_fUznjFYKyU9j5ZJ-64" value="" style="whiteSpace=wrap;html=1;rounded=0;shadow=0;labelBackgroundColor=none;strokeWidth=1;fontFamily=Verdana;fontSize=28;align=center;comic=1;" vertex="1" parent="1">
          <mxGeometry x="433" y="1700" width="187" height="20" as="geometry" />
        </mxCell>
        <mxCell id="pKKp_fUznjFYKyU9j5ZJ-65" value="" style="whiteSpace=wrap;html=1;rounded=0;shadow=0;labelBackgroundColor=none;strokeWidth=1;fontFamily=Verdana;fontSize=28;align=center;comic=1;" vertex="1" parent="1">
          <mxGeometry x="433" y="1760" width="187" height="20" as="geometry" />
        </mxCell>
        <mxCell id="pKKp_fUznjFYKyU9j5ZJ-67" value="&lt;font style=&quot;font-size: 18px;&quot;&gt;LOGIN&lt;/font&gt;" style="whiteSpace=wrap;html=1;rounded=0;shadow=0;labelBackgroundColor=none;strokeWidth=1;fontFamily=Verdana;fontSize=28;align=center;comic=1;fillColor=#3399FF;" vertex="1" parent="1">
          <mxGeometry x="486.5" y="1810" width="83" height="20" as="geometry" />
        </mxCell>
        <mxCell id="pKKp_fUznjFYKyU9j5ZJ-68" value="&lt;font style=&quot;font-size: 18px;&quot;&gt;LOGOUT&lt;/font&gt;" style="whiteSpace=wrap;html=1;rounded=0;shadow=0;labelBackgroundColor=none;strokeWidth=1;fontFamily=Verdana;fontSize=28;align=center;comic=1;" vertex="1" parent="1">
          <mxGeometry x="30" y="1900" width="80" height="30" as="geometry" />
        </mxCell>
        <mxCell id="pKKp_fUznjFYKyU9j5ZJ-69" value="LOGIN INTO YOUR ACCOUNT" style="text;html=1;points=[];align=left;verticalAlign=top;spacingTop=-4;fontSize=14;fontFamily=Verdana" vertex="1" parent="1">
          <mxGeometry x="440" y="1620" width="170" height="20" as="geometry" />
        </mxCell>
        <mxCell id="pKKp_fUznjFYKyU9j5ZJ-70" value="Email Address" style="text;html=1;points=[];align=left;verticalAlign=top;spacingTop=-4;fontSize=14;fontFamily=Verdana" vertex="1" parent="1">
          <mxGeometry x="433" y="1670" width="170" height="20" as="geometry" />
        </mxCell>
        <mxCell id="pKKp_fUznjFYKyU9j5ZJ-71" value="Password" style="text;html=1;points=[];align=left;verticalAlign=top;spacingTop=-4;fontSize=14;fontFamily=Verdana" vertex="1" parent="1">
          <mxGeometry x="433" y="1730" width="170" height="20" as="geometry" />
        </mxCell>
        <mxCell id="pKKp_fUznjFYKyU9j5ZJ-72" value="" style="whiteSpace=wrap;html=1;rounded=0;shadow=0;labelBackgroundColor=none;strokeColor=#000000;strokeWidth=1;fillColor=none;fontFamily=Verdana;fontSize=12;fontColor=#000000;align=center;comic=1;" vertex="1" parent="1">
          <mxGeometry x="20" y="1980" width="1060" height="500" as="geometry" />
        </mxCell>
        <mxCell id="pKKp_fUznjFYKyU9j5ZJ-73" value="All news" style="whiteSpace=wrap;html=1;rounded=0;shadow=0;labelBackgroundColor=none;strokeWidth=1;fontFamily=Verdana;fontSize=28;align=center;comic=1;" vertex="1" parent="1">
          <mxGeometry x="40" y="2020" width="190" height="50" as="geometry" />
        </mxCell>
        <mxCell id="pKKp_fUznjFYKyU9j5ZJ-74" value="" style="line;strokeWidth=1;html=1;rounded=0;shadow=0;labelBackgroundColor=none;fillColor=none;fontFamily=Verdana;fontSize=14;fontColor=#000000;align=center;comic=1;" vertex="1" parent="1">
          <mxGeometry x="20" y="2100" width="1060" height="10" as="geometry" />
        </mxCell>
        <mxCell id="pKKp_fUznjFYKyU9j5ZJ-75" value="" style="whiteSpace=wrap;html=1;rounded=0;shadow=0;labelBackgroundColor=none;strokeWidth=1;fillColor=none;fontFamily=Verdana;fontSize=12;align=center;comic=1;" vertex="1" parent="1">
          <mxGeometry x="20" y="2430" width="1060" height="50" as="geometry" />
        </mxCell>
        <mxCell id="pKKp_fUznjFYKyU9j5ZJ-76" value="" style="whiteSpace=wrap;html=1;rounded=0;shadow=0;labelBackgroundColor=none;strokeWidth=1;fillColor=none;fontFamily=Verdana;fontSize=12;align=center;comic=1;" vertex="1" parent="1">
          <mxGeometry x="425" y="2120" width="230" height="300" as="geometry" />
        </mxCell>
        <mxCell id="pKKp_fUznjFYKyU9j5ZJ-77" value="LOGO" style="whiteSpace=wrap;html=1;rounded=0;shadow=0;labelBackgroundColor=none;strokeWidth=1;fontFamily=Verdana;fontSize=28;align=center;comic=1;" vertex="1" parent="1">
          <mxGeometry x="865" y="2020" width="190" height="50" as="geometry" />
        </mxCell>
        <mxCell id="pKKp_fUznjFYKyU9j5ZJ-78" value="" style="whiteSpace=wrap;html=1;rounded=0;shadow=0;labelBackgroundColor=none;strokeWidth=1;fontFamily=Verdana;fontSize=28;align=center;comic=1;" vertex="1" parent="1">
          <mxGeometry x="431.5" y="2210" width="187" height="20" as="geometry" />
        </mxCell>
        <mxCell id="pKKp_fUznjFYKyU9j5ZJ-79" value="" style="whiteSpace=wrap;html=1;rounded=0;shadow=0;labelBackgroundColor=none;strokeWidth=1;fontFamily=Verdana;fontSize=28;align=center;comic=1;" vertex="1" parent="1">
          <mxGeometry x="433" y="2250" width="187" height="20" as="geometry" />
        </mxCell>
        <mxCell id="pKKp_fUznjFYKyU9j5ZJ-80" value="&lt;font style=&quot;font-size: 18px;&quot;&gt;SIGN UP&lt;/font&gt;" style="whiteSpace=wrap;html=1;rounded=0;shadow=0;labelBackgroundColor=none;strokeWidth=1;fontFamily=Verdana;fontSize=28;align=center;comic=1;fillColor=#3399FF;" vertex="1" parent="1">
          <mxGeometry x="434.5" y="2390" width="83" height="20" as="geometry" />
        </mxCell>
        <mxCell id="pKKp_fUznjFYKyU9j5ZJ-81" value="&lt;font style=&quot;font-size: 18px;&quot;&gt;LOGOUT&lt;/font&gt;" style="whiteSpace=wrap;html=1;rounded=0;shadow=0;labelBackgroundColor=none;strokeWidth=1;fontFamily=Verdana;fontSize=28;align=center;comic=1;" vertex="1" parent="1">
          <mxGeometry x="30" y="2440" width="80" height="30" as="geometry" />
        </mxCell>
        <mxCell id="pKKp_fUznjFYKyU9j5ZJ-82" value="LOGIN INTO YOUR ACCOUNT" style="text;html=1;points=[];align=left;verticalAlign=top;spacingTop=-4;fontSize=14;fontFamily=Verdana" vertex="1" parent="1">
          <mxGeometry x="440" y="2125" width="170" height="20" as="geometry" />
        </mxCell>
        <mxCell id="pKKp_fUznjFYKyU9j5ZJ-83" value="Email Address" style="text;html=1;points=[];align=left;verticalAlign=top;spacingTop=-4;fontSize=14;fontFamily=Verdana" vertex="1" parent="1">
          <mxGeometry x="433" y="2190" width="170" height="20" as="geometry" />
        </mxCell>
        <mxCell id="pKKp_fUznjFYKyU9j5ZJ-84" value="Password" style="text;html=1;points=[];align=left;verticalAlign=top;spacingTop=-4;fontSize=14;fontFamily=Verdana" vertex="1" parent="1">
          <mxGeometry x="431.5" y="2230" width="170" height="20" as="geometry" />
        </mxCell>
        <mxCell id="pKKp_fUznjFYKyU9j5ZJ-85" value="Name" style="text;html=1;points=[];align=left;verticalAlign=top;spacingTop=-4;fontSize=14;fontFamily=Verdana" vertex="1" parent="1">
          <mxGeometry x="433" y="2145" width="170" height="20" as="geometry" />
        </mxCell>
        <mxCell id="pKKp_fUznjFYKyU9j5ZJ-86" value="" style="whiteSpace=wrap;html=1;rounded=0;shadow=0;labelBackgroundColor=none;strokeWidth=1;fontFamily=Verdana;fontSize=28;align=center;comic=1;" vertex="1" parent="1">
          <mxGeometry x="434.5" y="2170" width="187" height="20" as="geometry" />
        </mxCell>
        <mxCell id="pKKp_fUznjFYKyU9j5ZJ-87" value="Confirmed Password" style="text;html=1;points=[];align=left;verticalAlign=top;spacingTop=-4;fontSize=14;fontFamily=Verdana" vertex="1" parent="1">
          <mxGeometry x="431.5" y="2280" width="170" height="20" as="geometry" />
        </mxCell>
        <mxCell id="pKKp_fUznjFYKyU9j5ZJ-88" value="" style="whiteSpace=wrap;html=1;rounded=0;shadow=0;labelBackgroundColor=none;strokeWidth=1;fontFamily=Verdana;fontSize=28;align=center;comic=1;" vertex="1" parent="1">
          <mxGeometry x="431.5" y="2310" width="187" height="20" as="geometry" />
        </mxCell>
        <mxCell id="pKKp_fUznjFYKyU9j5ZJ-89" value="Role" style="text;html=1;points=[];align=left;verticalAlign=top;spacingTop=-4;fontSize=14;fontFamily=Verdana" vertex="1" parent="1">
          <mxGeometry x="431.5" y="2340" width="170" height="20" as="geometry" />
        </mxCell>
        <mxCell id="pKKp_fUznjFYKyU9j5ZJ-90" value="User&amp;nbsp; Subject mat&amp;nbsp; &amp;nbsp;Pharmacist" style="text;html=1;points=[];align=left;verticalAlign=top;spacingTop=-4;fontSize=14;fontFamily=Verdana" vertex="1" parent="1">
          <mxGeometry x="431.5" y="2360" width="170" height="20" as="geometry" />
        </mxCell>
      </root>
    </mxGraphModel>
  </diagram>
</mxfile>
